LocationXYZ,BlockType,FeatureType,Sequence,BombID,FuseStartTime,ChainedID
42 52 147,block_bomb_chained,Bomb,R,1,9,17
3 52 141,block_bomb_chained,Bomb,BG,2,13,25
33 52 139,block_bomb_standard,Bomb,GB,3,9,NONE
35 52 136,block_bomb_fire,Bomb,B,4,7,NONE
39 52 136,block_bomb_standard,Bomb,G,5,11,NONE
22 53 135,block_bomb_standard,Bomb,RGB,6,5,NONE
32 52 125,block_bomb_fire,Bomb,BR,7,11,NONE
16 54 122,block_bomb_chained,Bomb,GR,8,7,26
11 52 115,block_bomb_standard,Bomb,RG,9,13,NONE
14 52 114,block_bomb_fire,Bomb,G,10,11,NONE
14 52 110,block_bomb_standard,Bomb,R,11,5,NONE
22 52 115,block_bomb_fire,Bomb,RB,12,5,NONE
36 52 115,block_bomb_fire,Bomb,R,13,7,NONE
37 52 112,block_bomb_standard,Bomb,B,14,7,NONE
46 54 111,block_bomb_chained,Bomb,G,15,5,40
25 52 104,block_bomb_fire,Bomb,RBG,16,7,NONE
5 52 105,block_bomb_chained,Bomb,GRB,17,11,NONE
34 54 103,block_bomb_chained,Bomb,B,18,11,44
7 52 99,block_bomb_standard,Bomb,GR,19,11,NONE
8 52 82,block_bomb_standard,Bomb,GB,20,13,NONE
20 52 98,block_bomb_standard,Bomb,G,21,9,NONE
20 52 94,block_bomb_fire,Bomb,RG,22,7,NONE
39 52 98,block_bomb_standard,Bomb,R,23,5,NONE
48 52 98,block_bomb_chained,Bomb,R,24,7,36
35 52 93,block_bomb_chained,Bomb,BR,25,5,NONE
49 52 91,block_bomb_chained,Bomb,BG,26,7,NONE
39 52 89,block_bomb_fire,Bomb,B,27,11,NONE
47 52 85,block_bomb_fire,Bomb,RB,28,9,NONE
5 52 70,block_bomb_chained,Bomb,B,29,5,53
49 52 69,block_bomb_chained,Bomb,GRB,30,13,46
4 52 59,block_bomb_fire,Bomb,G,31,11,NONE
4 52 55,block_bomb_standard,Bomb,RBG,32,9,NONE
26 52 56,block_bomb_fire,Bomb,BRG,33,7,NONE
32 52 57,block_bomb_fire,Bomb,BGR,34,9,NONE
32 52 53,block_bomb_standard,Bomb,GRB,35,11,NONE
45 52 52,block_bomb_chained,Bomb,GBR,36,5,NONE
3 52 47,block_bomb_chained,Bomb,G,37,7,54
21 52 45,block_bomb_standard,Bomb,BRG,38,13,NONE
25 52 45,block_bomb_fire,Bomb,B,39,9,NONE
49 52 47,block_bomb_chained,Bomb,RG,40,11,NONE
45 52 45,block_bomb_standard,Bomb,BR,41,9,NONE
44 52 38,block_bomb_fire,Bomb,GR,42,5,NONE
43 52 35,block_bomb_standard,Bomb,BG,43,11,NONE
44 52 26,block_bomb_chained,Bomb,RGB,44,5,NONE
27 52 26,block_bomb_fire,Bomb,RGB,45,11,NONE
44 52 19,block_bomb_chained,Bomb,BRG,46,5,NONE
4 52 13,block_bomb_standard,Bomb,R,47,5,NONE
7 52 10,block_bomb_standard,Bomb,GBR,48,11,NONE
8 52 7,block_bomb_fire,Bomb,RBG,49,7,NONE
20 52 11,block_bomb_fire,Bomb,GBR,50,9,NONE
41 52 7,block_bomb_fire,Bomb,GB,51,9,NONE
45 52 7,block_bomb_standard,Bomb,BGR,52,7,NONE
1 52 5,block_bomb_chained,Bomb,BGR,53,9,NONE
35 52 2,block_bomb_chained,Bomb,RB,54,13,NONE