LocationXYZ,BlockType,FeatureType,Sequence,BombID,FuseStartTime,ChainedID
4 53 147,block_bomb_chained,Bomb,GRB,1,9,18
3 52 129,block_bomb_standard,Bomb,GB,2,9,NONE
5 52 135,block_bomb_standard,Bomb,RGB,3,5,NONE
10 52 134,block_bomb_fire,Bomb,R,4,7,NONE
37 52 136,block_bomb_standard,Bomb,G,5,11,NONE
39 52 133,block_bomb_fire,Bomb,B,6,9,NONE
46 54 132,block_bomb_chained,Bomb,R,7,9,34
32 52 123,block_bomb_fire,Bomb,RBG,8,7,NONE
12 52 116,block_bomb_chained,Bomb,GR,9,7,35
43 52 117,block_bomb_standard,Bomb,RG,10,13,NONE
37 52 115,block_bomb_standard,Bomb,R,11,5,NONE
39 52 112,block_bomb_fire,Bomb,G,12,11,NONE
22 52 114,block_bomb_fire,Bomb,RB,13,5,NONE
22 52 110,block_bomb_standard,Bomb,B,14,9,NONE
25 52 105,block_bomb_fire,Bomb,BR,15,11,NONE
4 52 105,block_bomb_chained,Bomb,B,16,11,52
19 54 104,block_bomb_chained,Bomb,BG,17,13,38
47 54 105,block_bomb_chained,Bomb,G,18,5,NONE
44 52 99,block_bomb_standard,Bomb,GR,19,11,NONE
34 52 98,block_bomb_chained,Bomb,GBR,20,5,29
20 52 93,block_bomb_fire,Bomb,G,21,11,NONE
20 52 97,block_bomb_standard,Bomb,RBG,22,9,NONE
38 52 91,block_bomb_standard,Bomb,G,23,9,NONE
39 52 88,block_bomb_fire,Bomb,B,24,11,NONE
46 52 91,block_bomb_standard,Bomb,GB,25,13,NONE
48 52 85,block_bomb_fire,Bomb,RB,26,9,NONE
4 52 84,block_bomb_chained,Bomb,GRB,27,13,53
34 63 76,block_bomb_chained,Bomb,R,28,7,NONE
48 52 70,block_bomb_chained,Bomb,BG,29,7,46
43 52 59,block_bomb_fire,Bomb,RG,30,7,NONE
22 52 58,block_bomb_fire,Bomb,BGR,31,9,NONE
7 52 55,block_bomb_standard,Bomb,GRB,32,11,NONE
27 52 53,block_bomb_fire,Bomb,BRG,33,7,NONE
32 52 54,block_bomb_chained,Bomb,BR,34,5,NONE
41 52 52,block_bomb_chained,Bomb,B,35,5,NONE
45 52 52,block_bomb_standard,Bomb,R,36,5,NONE
3 52 46,block_bomb_chained,Bomb,RB,37,13,54
20 52 45,block_bomb_chained,Bomb,RG,38,11,NONE
45 52 44,block_bomb_standard,Bomb,BR,39,9,NONE
14 52 44,block_bomb_standard,Bomb,GBR,40,11,NONE
14 52 40,block_bomb_fire,Bomb,B,41,9,NONE
45 52 40,block_bomb_fire,Bomb,RGB,42,11,NONE
43 52 35,block_bomb_fire,Bomb,GBR,43,9,NONE
41 52 31,block_bomb_standard,Bomb,BG,44,11,NONE
25 52 28,block_bomb_fire,Bomb,GR,45,5,NONE
49 52 25,block_bomb_chained,Bomb,G,46,7,NONE
44 52 19,block_bomb_standard,Bomb,BRG,47,13,NONE
3 52 13,block_bomb_standard,Bomb,BGR,48,7,NONE
20 52 12,block_bomb_fire,Bomb,GB,49,7,NONE
49 52 12,block_bomb_standard,Bomb,R,50,5,NONE
48 52 9,block_bomb_fire,Bomb,RGB,51,11,NONE
6 52 10,block_bomb_chained,Bomb,RGB,52,5,NONE
2 53 4,block_bomb_chained,Bomb,BRG,53,5,NONE
35 52 2,block_bomb_chained,Bomb,BGR,54,9,NONE