{   
    "participant_id":"Not Set",
    "surveys":[
		{
			"survey_name":"Team Process Scale",
			"survey_id":"PRSS",
			"data":[
                {   
				   "text":"To what extent did your team actively work to..."
				},
				{
					"qid":"1", 
					"text":"Identify the key challenges that you expected to face?",
					"input_type":"MULTI_CHOICE",
					"image_asset":null,
					"labels":[
						"Not at all (1)",
						"Very little (2)",
						"To some extent (3)",
						"To a great extent (4)",
						"To a very great extent (5)"
					]
				},
				{
					"qid":"2", 
					"text":"Ensure that everyone on your team clearly understood your goals?",
					"input_type":"MULTI_CHOICE",
					"image_asset":null,
					"labels":[
						"Not at all (1)",
						"Very little (2)",
						"To some extent (3)",
						"To a great extent (4)",
						"To a very great extent (5)"
					]
				},
				{
					"qid":"3", 
					"text":"Develop an overall strategy to guide your team activities?",
					"input_type":"MULTI_CHOICE",
					"image_asset":null,
					"labels":[
						"Not at all (1)",
						"Very little (2)",
						"To some extent (3)",
						"To a great extent (4)",
						"To a very great extent (5)"
					]
				},
				{
					"qid":"4", 
					"text":"Monitor important aspects of your work environment?",
					"input_type":"MULTI_CHOICE",
					"image_asset":null,
					"labels":[
						"Not at all (1)",
						"Very little (2)",
						"To some extent (3)",
						"To a great extent (4)",
						"To a very great extent (5)"
					]
				},
				{
					"qid":"5", 
					"text":"Assist each other when help was needed?",
					"input_type":"MULTI_CHOICE",
					"image_asset":null,
					"labels":[
						"Not at all (1)",
						"Very little (2)",
						"To some extent (3)",
						"To a great extent (4)",
						"To a very great extent (5)"
					]
				},
				{
					"qid":"6", 
					"text":"Coordinate your activities with one another?",
					"input_type":"MULTI_CHOICE",
					"image_asset":null,
					"labels":[
						"Not at all (1)",
						"Very little (2)",
						"To some extent (3)",
						"To a great extent (4)",
						"To a very great extent (5)"
					]
				},
				{
					"qid":"7", 
					"text":"Deal with personal conflicts in fair and equitable ways?",
					"input_type":"MULTI_CHOICE",
					"image_asset":null,
					"labels":[
						"Not at all (1)",
						"Very little (2)",
						"To some extent (3)",
						"To a great extent (4)",
						"To a very great extent (5)"
					]
				},
				{
					"qid":"8", 
					"text":"Encourage each other to perform your very best?",
					"input_type":"MULTI_CHOICE",
					"image_asset":null,
					"labels":[
						"Not at all (1)",
						"Very little (2)",
						"To some extent (3)",
						"To a great extent (4)",
						"To a very great extent (5)"
					]
				},
				{
					"qid":"9", 
					"text":"Keep a good emotional balance in the team?",
					"input_type":"MULTI_CHOICE",
					"image_asset":null,
					"labels":[
						"Not at all (1)",
						"Very little (2)",
						"To some extent (3)",
						"To a great extent (4)",
						"To a very great extent (5)"
					]
				}
			]
		},
		{
			"survey_name":"Satisfaction about Performance and Teammates",
			"survey_id":"SATIS",
			"data":[
				{ 
					"qid":"1", 
					"text":"How satisfied were you with your group's overall score?",
					"input_type":"MULTI_CHOICE",
					"image_asset":null,
					"labels":[
						"Not at all satisfied (1)",
						"A little satisfied (2)",
						"Somewhat satisfied (3)",
						"Satisfied (4)",
						"Very satisfied (5)"
					]
				},
				{ 
					"qid":"2", 
					"text":"How satisfied were you with how your group worked together?",
					"input_type":"MULTI_CHOICE",
					"image_asset":null,
					"labels":[
						"Not at all satisfied (1)",
						"A little satisfied (2)",
						"Somewhat satisfied (3)",
						"Satisfied (4)",
						"Very satisfied (5)"
					]
				},
				{
					"qid":"3", 
					"text":"How satisfied were you with your team's plan?",
					"input_type":"MULTI_CHOICE",
					"image_asset":null,
					"labels":[
						"Not at all satisfied (1)",
						"A little satisfied (2)",
						"Somewhat satisfied (3)",
						"Satisfied (4)",
						"Very satisfied (5)"
					]
				},
				{
					"qid":"4", 
					"text":"I would like to keep working with this group in future missions.",
					"input_type":"MULTI_CHOICE",
					"image_asset":null,
					"labels":[
						"Strongly disagree (1)",
						"Disagree (2)",
						"Neither agree nor disagree (3)",
						"Agree (4)",
						"Strongly agree (5)"
					]
				},
				{
					"qid":"5", 
					"text":"My group could perform well on any kind of task.",
					"input_type":"MULTI_CHOICE",
					"image_asset":null,
					"labels":[
						"Strongly disagree (1)",
						"Disagree (2)",
						"Neither agree nor disagree (3)",
						"Agree (4)",
						"Strongly agree (5)"
					]
				}
		    ]	
		},
		{
			"survey_name":"Collective Self-Efficacy",
			"survey_id":"SELF_EFF",
			"data":[
                {   
				   "text":"If you played the game again with the same people, to what extent do you believe that your team, during this new game, would do the following?"
				},
				{ 
					"qid":"1", 
					"text":"Demonstrate a strong work ethic.",
					"input_type":"MULTI_CHOICE",
					"image_asset":null,
					"labels":[
						"Not likely at all (1)",
						"Not likely (2)",
						"Neither likely nor unlikely (3)",
						"Likely (4)",
						"Very likely (5)"
					]
				},
				{ 
					"qid":"2", 
					"text":"Overcome problems or obstacles.",
					"input_type":"MULTI_CHOICE",
					"image_asset":null,
					"labels":[
						"Not likely at all (1)",
						"Not likely (2)",
						"Neither likely nor unlikely (3)",
						"Likely (4)",
						"Very likely (5)"
					]
				},
				{ 
					"qid":"3", 
					"text":"Plan a successful strategy.",
					"input_type":"MULTI_CHOICE",
					"image_asset":null,
					"labels":[
						"Not likely at all (1)",
						"Not likely (2)",
						"Neither likely nor unlikely (3)",
						"Likely (4)",
						"Very likely (5)"
					]
				},
				{ 
					"qid":"4", 
					"text":"Maintain positive interactions within the team.",
					"input_type":"MULTI_CHOICE",
					"image_asset":null,
					"labels":[
						"Not likely at all (1)",
						"Not likely (2)",
						"Neither likely nor unlikely (3)",
						"Likely (4)",
						"Very likely (5)"
					]
				},
				{ 
					"qid":"5", 
					"text":"Defuse ALL the bombs.",
					"input_type":"MULTI_CHOICE",
					"image_asset":null,
					"labels":[
						"Not likely at all (1)",
						"Not likely (2)",
						"Neither likely nor unlikely (3)",
						"Likely (4)",
						"Very likely (5)"
					]
				},
				{ 
					"qid":"6", 
					"text":"Have time left over.",
					"input_type":"MULTI_CHOICE",
					"image_asset":null,
					"labels":[
						"Not likely at all (1)",
						"Not likely (2)",
						"Neither likely nor unlikely (3)",
						"Likely (4)",
						"Very likely (5)"
					]
				},
				{ 
					"qid":"7", 
					"text":"Share all relevant information during the task to optimize final score.",
					"input_type":"MULTI_CHOICE",
					"image_asset":null,
					"labels":[
						"Not likely at all (1)",
						"Not likely (2)",
						"Neither likely nor unlikely (3)",
						"Likely (4)",
						"Very likely (5)"
					]
				},
				{ 
					"qid":"8", 
					"text":"Coordinate team members' roles to defuse bombs quickly.",
					"input_type":"MULTI_CHOICE",
					"image_asset":null,
					"labels":[
						"Not likely at all (1)",
						"Not likely (2)",
						"Neither likely nor unlikely (3)",
						"Likely (4)",
						"Very likely (5)"
					]
				},
				{
					"qid":"9", 
					"text":"What was your team strategy for this game? Please explain briefly.",
					"input_type":"TEXTAREA",
					"image_asset":null,
					"labels":[						
					]
					
				}
			]	
		},
		{
			"survey_name":"Advisor Evaluation",
			"survey_id":"EVAL",
			"data":[
				{ 
					"qid":"1", 
					"text":"The advisor's recommendations improved our team score.",
					"input_type":"MULTI_CHOICE",
					"image_asset":null,
					"labels":[
						"Strongly disagree (1)",
						"Disagree (2)",
						"Somewhat disagree (3)",
						"Neither agree nor disagree (4)",
						"Somewhat agree (5)",
						"Agree (6)",
						"Strongly agree (7)",
						"There was no AI advisor (8)"
					]
				},
				{ 
					"qid":"2", 
					"text":"The advisor's recommendations improved our team coordination.",
					"input_type":"MULTI_CHOICE",
					"image_asset":null,
					"labels":[
						"Strongly disagree (1)",
						"Disagree (2)",
						"Somewhat disagree (3)",
						"Neither agree nor disagree (4)",
						"Somewhat agree (5)",
						"Agree (6)",
						"Strongly agree (7)",
						"There was no AI advisor (8)"
					]
				},
				{
					"qid":"3", 
					"text":"I felt comforable depending on the advisor.",
					"input_type":"MULTI_CHOICE",
					"image_asset":null,
					"labels":[
						"Strongly disagree (1)",
						"Disagree (2)",
						"Somewhat disagree (3)",
						"Neither agree nor disagree (4)",
						"Somewhat agree (5)",
						"Agree (6)",
						"Strongly agree (7)",
						"There was no AI advisor (8)"
					]
				},
				{
					"qid":"4", 
					"text":"I understand why the advisor made its recommendations.",
					"input_type":"MULTI_CHOICE",
					"image_asset":null,
					"labels":[
						"Strongly disagree (1)",
						"Disagree (2)",
						"Somewhat disagree (3)",
						"Neither agree nor disagree (4)",
						"Somewhat agree (5)",
						"Agree (6)",
						"Strongly agree (7)",
						"There was no AI advisor (8)"
					]
				},				
				{
					"qid": "5",
					"text": "I think the AI Advisor is trustworthy.",
					"input_type":"MULTI_CHOICE",
					"image_asset":null,
					"labels":[
						"Strongly disagree (1)",
						"Disagree (2)",
						"Somewhat disagree (3)",
						"Neither agree nor disagree (4)",
						"Somewhat agree (5)",
						"Agree (6)",
						"Strongly agree (7)",
						"There was no AI advisor (8)"
					]
				},
				{	
					"qid": "6",
					"text": "Please elaborate on why you gave these ratings of the AI Advisor. (This is essential to help us improve the AI Advisor.)",
					"input_type": "TEXTAREA",
					"image_asset": null,
					"labels": null
				}
			]
		},
		{
			"survey_name":"Member Familiarity",
			"survey_id":"TEAM_FAMIL",
			"data":[
				{ 
					"qid":"1", 
					"text":"Do you know any of the other two players outside this game?",
					"input_type":"MULTI_CHOICE",
					"image_asset":null,
					"labels":[
						"Yes (1)",						
						"No (2)"	
					]
				},
				{ 
					"qid":"2", 
					"text":"If you answered yes to the question above, how do you know the other two players?",
					"input_type":"TEXTAREA",
					"image_asset":null,
					"labels":[						
					]
				},
				{ 
					"qid":"3", 
					"text":"Please provide any additonal feedback (Bug Reports etc...) in the text area below: ",
					"input_type":"TEXTAREA",
					"image_asset":null,
					"labels":[						
					]
				}
			]
		}
	]		
}			 