{
  "@timestamp": "2022-12-01T22:33:02.072Z",
  "data": {
    "extractions": [
      {
        "labels": [
          "Coin",
          "Item",
          "Concept"
        ],
        "rule": "coin",
        "span": "coins",
        "start_offset": 1,
        "end_offset": 2
      },
      {
        "labels": [
          "Question",
          "Communicate",
          "SimpleAction",
          "Action",
          "EventLike",
          "Concept"
        ],
        "rule": "unknown_question",
        "span": "?",
        "start_offset": 1,
        "end_offset": 2
      },
      {
        "arguments": {
          "object": [
            {
              "labels": [
                "Coin",
                "Item",
                "Concept"
              ],
              "rule": "coin",
              "span": "coins",
              "start_offset": 1,
              "end_offset": 2
            }
          ]
        },
        "attachments": [
          {
            "agentType": "Person",
            "labels": [
              "Person",
              "Entity",
              "Concept"
            ],
            "span": [
              1
            ],
            "text": "anyone"
          }
        ],
        "labels": [
          "ReportPossession",
          "ReportStatus",
          "Communicate",
          "SimpleAction",
          "Action",
          "EventLike",
          "Concept"
        ],
        "rule": "possess_coin",
        "span": "have coins",
        "start_offset": 1,
        "end_offset": 2
      }
    ],
    "participant_id": "red",
    "text": "Does anyone have coins?"
  },
  "header": {
    "message_type": "agent",
    "timestamp": "2022-12-01T22:33:02.070Z",
    "version": "1.2"
  },
  "msg": {
    "experiment_id": "059e8d7c-736a-4b47-b35a-8c1c507b9448",
    "replay_id": "99fc4570-fbd7-4b17-892a-c2a560045929",
    "replay_parent_id": null,
    "replay_parent_type": "TRIAL",
    "source": "agent",
    "sub_type": "",
    "trial_id": "56e661e3-cbaa-48e9-9444-705647f934de",
    "version": ""
  },
  "topic": "agent/AC_UAZ_TA1_DialogAgent"
}
