{
    "minecraft_installation_dir_backup":"\\AppData\\Roaming\\.minecraft_BACKUP",
    "minecraft_installation_dir":"\\AppData\\Roaming\\.minecraft",
    "libraries_installation_path":"\\AppData\\Roaming\\.minecraft\\libraries",
    "mod_installation_path":"\\AppData\\Roaming\\.minecraft\\mods",
    "forge_installer_path":".\\forge-1.11.2-13.20.1.2588-installer_06252022.jar"
}