{
    "variants":{
        "normal": { "model":"asistmod:block_bomb_chained"},
        "explode=0": { "model":"asistmod:block_bomb_chained" },
        "explode=1": { "model":"asistmod:block_bomb_chained_stage1" },
        "explode=2": { "model":"asistmod:block_bomb_chained_stage2" },
        "explode=3": { "model":"asistmod:block_bomb_chained_stage3" }
    }
}
