LocationXYZ,BlockType,FeatureType,Sequence,BombID,FuseStartTime,ChainedID
43 52 148,block_bomb_chained,Bomb,GR,1,7,15
6 53 146,block_bomb_chained,Bomb,B,2,11,34
29 52 137,block_bomb_fire,Bomb,R,3,7,NONE
33 52 137,block_bomb_standard,Bomb,B,4,7,NONE
14 52 136,block_bomb_standard,Bomb,G,5,11,NONE
11 52 134,block_bomb_fire,Bomb,B,6,9,NONE
7 52 134,block_bomb_standard,Bomb,GB,7,9,NONE
24 53 129,block_bomb_chained,Bomb,BG,8,13,29
30 52 125,block_bomb_fire,Bomb,RB,9,5,NONE
36 52 116,block_bomb_standard,Bomb,R,10,5,NONE
39 52 114,block_bomb_fire,Bomb,G,11,11,NONE
39 52 110,block_bomb_standard,Bomb,RG,12,13,NONE
12 52 117,block_bomb_standard,Bomb,RGB,13,5,NONE
12 52 113,block_bomb_fire,Bomb,BR,14,11,NONE
4 52 105,block_bomb_chained,Bomb,GRB,15,9,NONE
26 52 105,block_bomb_fire,Bomb,RBG,16,7,NONE
34 54 102,block_bomb_chained,Bomb,R,17,9,42
46 54 106,block_bomb_chained,Bomb,G,18,5,46
45 52 99,block_bomb_standard,Bomb,G,19,9,NONE
43 52 97,block_bomb_fire,Bomb,RB,20,9,NONE
48 52 99,block_bomb_standard,Bomb,GR,21,11,NONE
48 52 91,block_bomb_standard,Bomb,GB,22,13,NONE
47 52 85,block_bomb_fire,Bomb,RG,23,7,NONE
35 52 93,block_bomb_chained,Bomb,GBR,24,5,48
8 52 90,block_bomb_chained,Bomb,R,25,7,37
34 63 76,block_bomb_chained,Bomb,GRB,26,13,NONE
4 52 70,block_bomb_standard,Bomb,RBG,27,9,NONE
7 52 69,block_bomb_fire,Bomb,G,28,11,NONE
47 52 69,block_bomb_chained,Bomb,BR,29,5,NONE
4 52 59,block_bomb_fire,Bomb,BGR,30,9,NONE
4 52 55,block_bomb_standard,Bomb,R,31,5,NONE
41 52 60,block_bomb_fire,Bomb,B,32,11,NONE
44 52 60,block_bomb_standard,Bomb,GRB,33,11,NONE
22 52 54,block_bomb_chained,Bomb,B,34,5,NONE
27 52 54,block_bomb_fire,Bomb,BRG,35,7,NONE
42 52 52,block_bomb_chained,Bomb,R,36,7,26
3 52 47,block_bomb_chained,Bomb,G,37,7,NONE
13 52 43,block_bomb_standard,Bomb,R,38,5,NONE
13 52 39,block_bomb_fire,Bomb,RGB,39,11,NONE
19 52 42,block_bomb_fire,Bomb,GR,40,5,NONE
21 52 45,block_bomb_standard,Bomb,GBR,41,11,NONE
36 52 46,block_bomb_chained,Bomb,RG,42,11,NONE
45 52 45,block_bomb_standard,Bomb,BGR,43,7,NONE
43 52 43,block_bomb_fire,Bomb,B,44,9,NONE
49 52 45,block_bomb_chained,Bomb,RB,45,13,54
41 52 31,block_bomb_chained,Bomb,BRG,46,5,NONE
27 52 27,block_bomb_fire,Bomb,RBG,47,7,NONE
44 52 27,block_bomb_chained,Bomb,BGR,48,9,NONE
10 52 19,block_bomb_fire,Bomb,GB,49,7,NONE
3 52 13,block_bomb_standard,Bomb,BRG,50,13,NONE
42 52 7,block_bomb_standard,Bomb,BR,51,9,NONE
46 52 7,block_bomb_fire,Bomb,GBR,52,9,NONE
48 52 10,block_bomb_standard,Bomb,BG,53,11,NONE
1 52 4,block_bomb_chained,Bomb,RGB,54,5,NONE