{
    "mqtthost": "tcp://localhost:1883",
    "useRoomDefinitionFile": false,
    "roomDefinitionFile":"Room_Definitions.json",   
    "observationInterval": 100,
    "clientSideMapBuilder": false,
    "clientSideMapBuilderMapBlockFile":"MapBlocks_Orion_1.0.csv",
    "authorizePlayers": true,
    "missionLength":{
    	"minute": 30,
        "second": 0 
    },
    "time_in_recon":{
    	"minute": 0,
        "second": 10
    },  
    "time_in_field":{
        "minute": 5,
        "second": 0       
    },
    "time_in_shop": {
        "minute": 10,
        "second": 0
    },
    "fire_perturbation_time_threshold":{
    	"minute": 5,
        "second": 0
    },
    "team_budget":50,
    "fire_spread_interval_seconds":20,    
    "bomb_timer_seconds":15,
    "markers_on_start":5,       
    "observerNames": [],    
    "blackout_perturbation":[
        {
        "triggering_mission":"Saturn_A_1",
        "start":{
            "minute": 14,
            "second": 50
        },
        "end":{
            "minute": 14,
            "second": 20
        },
        "file":null 
        },
        {
        "triggering_mission":"Saturn_B_1",
        "start":{
            "minute": 14,
            "second": 50
        },
        "end":{
            "minute": 14,
            "second": 20
        },
        "file":null 
        }
    ],
    "rubble_perturbation":[
      {
        "triggering_mission":"Saturn_A_2",
        "start":{
            "minute": 14,
            "second": 50
        },
        "end":{
            "minute": 14,
            "second": 20
        },
        "file":"Perturbation_Rubble_1.0.csv" 
      },
      {
        "triggering_mission":"Saturn_B_2",
        "start":{
            "minute": 14,
            "second": 50
        },
        "end":{
            "minute": 14,
            "second": 20
        },
        "file":"Perturbation_Rubble_1.0.csv" 
      }
    ],
    "map_boundaries":{
    	"fromX":0,
    	"fromY":51,
    	"fromZ":0,
    	"toX":50,
    	"toY":51,
    	"toZ":150
    },
    "tool_cost":{
    	"WIRECUTTERS_RED":1,
    	"WIRECUTTERS_GREEN":1,
    	"WIRECUTTERS_BLUE":1,
    	"BOMB_BEACON":0,
    	"HAZARD_BEACON":0,
    	"BOMB_SENSOR":2,
    	"FIRE_EXTINGUISHER":1,
    	"BOMB_DISPOSER":10,
    	"BOMB_PPE":3
    },
    "sector_boundaries":
    	[ 	
    		{
    			"fromX":1,
		    	"fromY":51,
		    	"fromZ":100,
		    	"toX":50,
		    	"toY":51,
		    	"toZ":150	
    		},
    		{
    			"fromX":1,
		    	"fromY":51,
		    	"fromZ":50,
		    	"toX":50,
		    	"toY":51,
		    	"toZ":99	
    		},
    		{
    			"fromX":1,
		    	"fromY":51,
		    	"fromZ":1,
		    	"toX":50,
		    	"toY":51,
		    	"toZ":49	
    		}
    	],
    "sector_gates":[
    		{
    			"fromX":26,
		    	"fromY":52,
		    	"fromZ":100,
		    	"toX":27,
		    	"toY":53,
		    	"toZ":100	
    		},
    		{
    			"fromX":26,
		    	"fromY":52,
		    	"fromZ":50,
		    	"toX":27,
		    	"toY":53,
		    	"toZ":50	
    		}
    ]
    
    	
    
     
}
