{
  "Medical_Specialist": "Great Choice! {0} is the best role to choose!!",
  "Hazardous_Material_Specialist": "{0} is not a bad job, just don't complain to me when I ask you to work!!",
  "default": "Noooo! Why? Why would you want to be a {0}?"
}