[
	{
		"topic": "agent/ASI_CMU_TA1_ATLAS/versioninfo",
		"type": "agent",
		"subtype": "versioninfo"
	},
    {
        "topic": "agent/control/rollcall/response",
        "type": "agent",
        "subtype": "rollcall:response"
    },
    {
        "topic": "status/ASI_CMU_TA1_ATLAS/heartbeats",
        "type": "status",
        "subtype": "heartbeat"
    },
    {
        "topic": "agent/intervention/ASI_CMU_TA1_ATLAS/chat",
        "type": "agent",
        "subtype": "Intervention:Chat"
    },
    {
        "topic": "agent/prediction/state/ASI_CMU_TA1_ATLAS",
        "type": "agent",
        "subtype": "Prediction:State"
    },
    {
        "topic": "agent/measures/ASI_CMU_TA1_ATLAS",
        "type": "agent",
        "subtype": "measures"
    }
]