{
	"agent_name": "ASI_CMU_TA1_ATLAS",
	"version": "1.0.6",
	"owner": "CMU TA1",
	"agent_type": "ASI",
	"config": "file:///version_info/config.json",
	"source": "file:///version_info/source.json",
	"dependencies": "file:///version_info/dependencies.json",
	"publishes": "file:///version_info/publishes.json",
	"subscribes": "file:///version_info/subscribes.json"
}
