{
    "DebugMode": true,
    "team_assembly":{
        "players_per_team":3,    
        "team_assembly_strategies":[
            "FIFO",
            "ADMIN"
        ],
        "team_assembly_strategy":"FIFO",
        "callsigns":["Alpha","Bravo","Delta"]
    },
    "scaling_mode": false,
    "scaling_metric": {
        "metric_value_per_instance": 10,
        "scaling_metric_service": "scalingmetricservice"        
    },        
    "advisor_conditions":[
        "NO_ADVISOR",
        "ASI_DOLL_TA1_RITA",
        "ASI_CMU_TA1_ATLAS"
    ],
    "disconnectTimeout":60000,
    "db_api_token":"SET_BY_ENV_FILE"

}

    
